C:\Users\livingroom\Documents\Git\jacoco\src\test\java\com\javacodegeeks\examples\junitmavenexample\CalculatorTest.java
C:\Users\livingroom\Documents\Git\jacoco\src\test\java\com\javacodegeeks\examples\junitmavenexample\MainAppTest.java
C:\Users\livingroom\Documents\Git\jacoco\src\test\java\com\javacodegeeks\examples\junitmavenexample\AllTests.java
